^C:\USERS\ДИМА\DESKTOP\KURS_PROG2\OPENGL\LABS\LAB2\LAB2\QUADRANGLE\QUADRANGLE.CPP
C:\USERS\Дима\DESKTOP\KURS_PROG2\OPENGL\LABS\LAB2\LAB2\QUADRANGLE\X64\DEBUG\VC143.PDB
C:\USERS\Дима\DESKTOP\KURS_PROG2\OPENGL\LABS\LAB2\LAB2\QUADRANGLE\X64\DEBUG\VC143.IDB
C:\USERS\Дима\DESKTOP\KURS_PROG2\OPENGL\LABS\LAB2\LAB2\QUADRANGLE\X64\DEBUG\QUADRANGLE.OBJ
